<svg width="6" height="10" viewBox="0 0 6 10" fill="none" xmlns="http://www.w3.org/2000/svg">
<path fill-rule="evenodd" clip-rule="evenodd" d="M4.42304 4.99268L0.160396 9.00385C-0.0525569 9.20424 -0.0525569 9.52914 0.160396 9.72953L0.288107 9.84971C0.50106 10.0501 0.846324 10.0501 1.05928 9.84971L5.69486 5.48759C5.69975 5.48333 5.70457 5.47897 5.70933 5.47451L5.83754 5.35429C6.05084 5.15427 6.05084 4.82999 5.83754 4.62997L1.06064 0.150758C0.847332 -0.0492554 0.501493 -0.0492563 0.288187 0.150758L0.159979 0.270975C-0.053327 0.470989 -0.053327 0.795276 0.159979 0.99529L4.42304 4.99268Z" fill="#98989A"/>
</svg>
