<svg width="21" height="19" viewBox="0 0 21 19" fill="none" xmlns="http://www.w3.org/2000/svg">
<path d="M7.34894 16.2993L7.3497 16.2999C8.04559 16.8929 8.83383 17.5647 9.65133 18.2795C9.88618 18.4852 10.1875 18.5984 10.5 18.5984C10.8123 18.5984 11.1138 18.4852 11.3485 18.2798C12.1679 17.5633 12.9573 16.8904 13.6544 16.2965L13.6544 16.2965L13.6607 16.2912C15.6956 14.557 17.4624 13.0512 18.6937 11.5655C20.0749 9.89893 20.725 8.30945 20.725 6.56814C20.725 4.88154 20.1467 3.32156 19.0922 2.17774C18.0248 1.02001 16.5595 0.382422 14.9681 0.382422C13.7766 0.382422 12.6847 0.759605 11.7253 1.50162C11.2751 1.84978 10.865 2.2699 10.5 2.75542C10.1351 2.26989 9.7249 1.84977 9.27484 1.50163L9.27483 1.50163C8.31542 0.759605 7.22349 0.382422 6.03199 0.382422C4.44046 0.382422 2.97534 1.02001 1.90792 2.17774L1.90792 2.17774C0.853429 3.32156 0.275 4.88153 0.275 6.56814C0.275 8.30945 0.925233 9.89893 2.30644 11.5656L2.38267 11.5024L2.30644 11.5656C3.53801 13.0516 5.30562 14.5579 7.34152 16.2929L7.34539 16.2962L7.34615 16.2968L7.34894 16.2993ZM3.37365 10.6811L3.29665 10.7449L3.37365 10.6811C2.18364 9.24525 1.66106 7.97888 1.66106 6.56814C1.66106 5.22515 2.11253 4.0007 2.92692 3.1173C3.72883 2.24766 4.83076 1.76864 6.03199 1.76864C6.90919 1.76864 7.71418 2.04705 8.42682 2.59808C9.06367 3.09062 9.50903 3.71504 9.77094 4.15409L9.77095 4.15412C9.92555 4.41312 10.1985 4.56824 10.5 4.56824C10.8014 4.56824 11.0744 4.41312 11.229 4.15412L11.1431 4.10286L11.229 4.15412C11.4911 3.71504 11.9365 3.09062 12.5732 2.59807C13.2858 2.04705 14.0908 1.76864 14.9681 1.76864C16.1692 1.76864 17.2713 2.24766 18.073 3.1173C18.8874 4.00069 19.3389 5.22515 19.3389 6.56814C19.3389 7.97888 18.8163 9.24526 17.6265 10.6811C16.4731 12.0728 14.7555 13.5368 12.7553 15.2416C12.074 15.822 11.304 16.4782 10.4984 17.1791C9.69743 16.4796 8.92867 15.8244 8.24882 15.245L8.24797 15.2442L8.2451 15.2419C8.24496 15.2417 8.24481 15.2416 8.24467 15.2415C6.2445 13.5369 4.5269 12.0727 3.37365 10.6811Z" fill="#43273B" stroke="#43273B" stroke-width="0.2"/>
</svg>
