<svg width="14" height="14" viewBox="0 0 14 14" fill="none" xmlns="http://www.w3.org/2000/svg">
<g clip-path="url(#clip0)">
<path d="M5.00929 0.29177C3.43415 0.759962 2.07414 1.76775 1.16775 3.13843C1.04326 3.36303 0.965534 3.61047 0.939245 3.8659V1.40836H0.0065918V5.13897H3.7372V4.20632H1.62941C2.67363 2.19747 4.73765 0.925362 7.00149 0.895401C9.68622 0.926616 12.0395 2.69816 12.8119 5.26954L13.7073 5.00374C12.6066 1.30067 8.71236 -0.808935 5.00929 0.29177Z" fill="#98989A"/>
<path d="M10.2644 8.86958V9.80224H12.3722C11.3279 11.8111 9.26393 13.0832 7.00009 13.1132C4.31536 13.0819 1.96213 11.3104 1.18966 8.73901L0.294312 9.00482C1.39974 12.7065 5.29666 14.8111 8.9983 13.7057C10.6196 13.2215 12.0104 12.166 12.9131 10.7349C13.0098 10.5524 13.061 10.3492 13.0623 10.1427V12.6002H13.995V8.86958H10.2644Z" fill="#98989A"/>
</g>
<defs>
<clipPath id="clip0">
<rect width="14" height="14" fill="white"/>
</clipPath>
</defs>
</svg>
